{
    "asset" : {
        "generator" : "Khronos glTF Blender I/O v1.2.75",
        "version" : "2.0"
    },
    "scene" : 0,
    "scenes" : [
        {
            "name" : "Scene",
            "nodes" : [
                0,
                1,
                30
            ]
        }
    ],
    "nodes" : [
        {
            "name" : "Light",
            "rotation" : [
                0.16907575726509094,
                0.7558803558349609,
                -0.27217137813568115,
                0.570947527885437
            ],
            "translation" : [
                4.076245307922363,
                5.903861999511719,
                -1.0054539442062378
            ]
        },
        {
            "name" : "Camera",
            "rotation" : [
                0.483536034822464,
                0.33687159419059753,
                -0.20870360732078552,
                0.7804827094078064
            ],
            "translation" : [
                7.358891487121582,
                4.958309173583984,
                6.925790786743164
            ]
        },
        {
            "mesh" : 0,
            "name" : "ceiling.005_0"
        },
        {
            "mesh" : 1,
            "name" : "ceiling.005_1"
        },
        {
            "mesh" : 2,
            "name" : "ceiling.005_2"
        },
        {
            "children" : [
                2,
                3,
                4
            ],
            "name" : "ceiling.005",
            "translation" : [
                1.2889900207519531,
                2.743340015411377,
                -3.604759931564331
            ]
        },
        {
            "mesh" : 3,
            "name" : "furniture.005_0"
        },
        {
            "mesh" : 4,
            "name" : "furniture.005_1"
        },
        {
            "mesh" : 5,
            "name" : "furniture.005_2"
        },
        {
            "mesh" : 6,
            "name" : "furniture.005_3"
        },
        {
            "mesh" : 7,
            "name" : "furniture.005_4"
        },
        {
            "mesh" : 8,
            "name" : "furniture.005_5"
        },
        {
            "mesh" : 9,
            "name" : "furniture.005_6"
        },
        {
            "children" : [
                6,
                7,
                8,
                9,
                10,
                11,
                12
            ],
            "name" : "furniture.005",
            "rotation" : [
                0,
                0.7071068286895752,
                0,
                0.7071068286895752
            ],
            "scale" : [
                0.8499600291252136,
                0.8499600291252136,
                0.8499600291252136
            ],
            "translation" : [
                0.514989972114563,
                0.7280700206756592,
                -7.9121198654174805
            ]
        },
        {
            "name" : "Sun.001"
        },
        {
            "children" : [
                14
            ],
            "name" : "Sun.002",
            "rotation" : [
                -0.570970356464386,
                -0.045152436941862106,
                -0.2385670393705368,
                0.7842448353767395
            ],
            "scale" : [
                0.9999966621398926,
                1.000002384185791,
                1.0000057220458984
            ],
            "translation" : [
                10.121609687805176,
                11.083319664001465,
                -14.638199806213379
            ]
        },
        {
            "mesh" : 10,
            "name" : "walls.005_0"
        },
        {
            "mesh" : 11,
            "name" : "walls.005_1"
        },
        {
            "mesh" : 12,
            "name" : "walls.005_10"
        },
        {
            "mesh" : 13,
            "name" : "walls.005_11"
        },
        {
            "mesh" : 14,
            "name" : "walls.005_12"
        },
        {
            "mesh" : 15,
            "name" : "walls.005_2"
        },
        {
            "mesh" : 16,
            "name" : "walls.005_3"
        },
        {
            "mesh" : 17,
            "name" : "walls.005_4"
        },
        {
            "mesh" : 18,
            "name" : "walls.005_5"
        },
        {
            "mesh" : 19,
            "name" : "walls.005_6"
        },
        {
            "mesh" : 20,
            "name" : "walls.005_7"
        },
        {
            "mesh" : 21,
            "name" : "walls.005_8"
        },
        {
            "mesh" : 22,
            "name" : "walls.005_9"
        },
        {
            "children" : [
                16,
                17,
                18,
                19,
                20,
                21,
                22,
                23,
                24,
                25,
                26,
                27,
                28
            ],
            "name" : "walls.005",
            "translation" : [
                2.404710054397583,
                0,
                -0.5222200155258179
            ]
        },
        {
            "children" : [
                5,
                13,
                15,
                29
            ],
            "name" : "Screen Space Reflection Demo: Follmann 2.OG",
            "scale" : [
                0.9946801662445068,
                0.9946804046630859,
                0.9946804046630859
            ]
        }
    ],
    "materials" : [
        {
            "emissiveFactor" : [
                1,
                1,
                1
            ],
            "emissiveTexture" : {
                "index" : 0,
                "texCoord" : 0
            },
            "name" : "BakedCycles",
            "pbrMetallicRoughness" : {}
        },
        {
            "emissiveFactor" : [
                1,
                1,
                1
            ],
            "emissiveTexture" : {
                "index" : 1,
                "texCoord" : 0
            },
            "name" : "ceiling_wool.005",
            "pbrMetallicRoughness" : {}
        },
        {
            "doubleSided" : true,
            "emissiveFactor" : [
                1,
                1,
                1
            ],
            "emissiveTexture" : {
                "index" : 2,
                "texCoord" : 0
            },
            "name" : "light.005",
            "pbrMetallicRoughness" : {}
        },
        {
            "emissiveFactor" : [
                1,
                1,
                1
            ],
            "emissiveTexture" : {
                "index" : 3,
                "texCoord" : 0
            },
            "name" : "wood_table.005",
            "pbrMetallicRoughness" : {}
        },
        {
            "emissiveFactor" : [
                1,
                1,
                1
            ],
            "emissiveTexture" : {
                "index" : 4,
                "texCoord" : 0
            },
            "name" : "chrome.005",
            "pbrMetallicRoughness" : {}
        },
        {
            "emissiveFactor" : [
                1,
                1,
                1
            ],
            "emissiveTexture" : {
                "index" : 5,
                "texCoord" : 0
            },
            "name" : "seating.005",
            "pbrMetallicRoughness" : {}
        },
        {
            "emissiveFactor" : [
                1,
                1,
                1
            ],
            "emissiveTexture" : {
                "index" : 6,
                "texCoord" : 0
            },
            "name" : "BakedCycles.001",
            "pbrMetallicRoughness" : {}
        },
        {
            "name" : "red.006",
            "pbrMetallicRoughness" : {}
        },
        {
            "name" : "Sun.002",
            "pbrMetallicRoughness" : {}
        },
        {
            "emissiveFactor" : [
                1,
                1,
                1
            ],
            "emissiveTexture" : {
                "index" : 7,
                "texCoord" : 0
            },
            "name" : "plint.005",
            "pbrMetallicRoughness" : {}
        },
        {
            "emissiveFactor" : [
                1,
                1,
                1
            ],
            "emissiveTexture" : {
                "index" : 8,
                "texCoord" : 0
            },
            "name" : "plita_blu.005",
            "pbrMetallicRoughness" : {}
        },
        {
            "emissiveFactor" : [
                1,
                1,
                1
            ],
            "emissiveTexture" : {
                "index" : 9,
                "texCoord" : 0
            },
            "name" : "window.005",
            "pbrMetallicRoughness" : {}
        },
        {
            "emissiveFactor" : [
                1,
                1,
                1
            ],
            "emissiveTexture" : {
                "index" : 10,
                "texCoord" : 0
            },
            "name" : "floor.005",
            "pbrMetallicRoughness" : {}
        },
        {
            "emissiveFactor" : [
                1,
                1,
                1
            ],
            "emissiveTexture" : {
                "index" : 11,
                "texCoord" : 0
            },
            "name" : "doors_plate_black.005",
            "pbrMetallicRoughness" : {}
        },
        {
            "alphaMode" : "BLEND",
            "doubleSided" : true,
            "name" : "glass.005",
            "pbrMetallicRoughness" : {}
        },
        {
            "name" : "window_out.005",
            "pbrMetallicRoughness" : {}
        },
        {
            "doubleSided" : true,
            "emissiveFactor" : [
                1,
                1,
                1
            ],
            "emissiveTexture" : {
                "index" : 12,
                "texCoord" : 0
            },
            "name" : "stainless_steel.005",
            "pbrMetallicRoughness" : {}
        },
        {
            "emissiveFactor" : [
                1,
                1,
                1
            ],
            "emissiveTexture" : {
                "index" : 13,
                "texCoord" : 0
            },
            "name" : "doors_plate.005",
            "pbrMetallicRoughness" : {}
        },
        {
            "emissiveFactor" : [
                1,
                1,
                1
            ],
            "emissiveTexture" : {
                "index" : 14,
                "texCoord" : 0
            },
            "name" : "walls2.005",
            "pbrMetallicRoughness" : {}
        },
        {
            "name" : "concrette.005",
            "pbrMetallicRoughness" : {}
        },
        {
            "doubleSided" : true,
            "name" : "metal.005",
            "pbrMetallicRoughness" : {}
        }
    ],
    "meshes" : [
        {
            "name" : "ceiling.005_0",
            "primitives" : [
                {
                    "attributes" : {
                        "POSITION" : 0,
                        "NORMAL" : 1,
                        "TEXCOORD_0" : 2
                    },
                    "indices" : 3,
                    "material" : 0
                }
            ]
        },
        {
            "name" : "ceiling.005_1",
            "primitives" : [
                {
                    "attributes" : {
                        "POSITION" : 4,
                        "NORMAL" : 5,
                        "TEXCOORD_0" : 6
                    },
                    "indices" : 7,
                    "material" : 1
                }
            ]
        },
        {
            "name" : "ceiling.005_2",
            "primitives" : [
                {
                    "attributes" : {
                        "POSITION" : 8,
                        "NORMAL" : 9,
                        "TEXCOORD_0" : 10
                    },
                    "indices" : 11,
                    "material" : 2
                }
            ]
        },
        {
            "name" : "furniture.005_0",
            "primitives" : [
                {
                    "attributes" : {
                        "POSITION" : 12,
                        "NORMAL" : 13,
                        "TEXCOORD_0" : 14
                    },
                    "indices" : 15,
                    "material" : 3
                }
            ]
        },
        {
            "name" : "furniture.005_1",
            "primitives" : [
                {
                    "attributes" : {
                        "POSITION" : 16,
                        "NORMAL" : 17,
                        "TEXCOORD_0" : 18
                    },
                    "indices" : 19,
                    "material" : 4
                }
            ]
        },
        {
            "name" : "furniture.005_2",
            "primitives" : [
                {
                    "attributes" : {
                        "POSITION" : 20,
                        "NORMAL" : 21,
                        "TEXCOORD_0" : 22
                    },
                    "indices" : 23,
                    "material" : 5
                }
            ]
        },
        {
            "name" : "furniture.005_3",
            "primitives" : [
                {
                    "attributes" : {
                        "POSITION" : 24,
                        "NORMAL" : 25,
                        "TEXCOORD_0" : 26
                    },
                    "indices" : 27,
                    "material" : 6
                }
            ]
        },
        {
            "name" : "furniture.005_4",
            "primitives" : [
                {
                    "attributes" : {
                        "POSITION" : 28,
                        "NORMAL" : 29,
                        "TEXCOORD_0" : 30
                    },
                    "indices" : 31,
                    "material" : 7
                }
            ]
        },
        {
            "name" : "furniture.005_5",
            "primitives" : [
                {
                    "attributes" : {
                        "POSITION" : 32,
                        "NORMAL" : 33,
                        "TEXCOORD_0" : 34
                    },
                    "indices" : 35,
                    "material" : 8
                }
            ]
        },
        {
            "name" : "furniture.005_6",
            "primitives" : [
                {
                    "attributes" : {
                        "POSITION" : 36,
                        "NORMAL" : 37,
                        "TEXCOORD_0" : 38
                    },
                    "indices" : 39,
                    "material" : 9
                }
            ]
        },
        {
            "name" : "walls.005_0",
            "primitives" : [
                {
                    "attributes" : {
                        "POSITION" : 40,
                        "NORMAL" : 41,
                        "TEXCOORD_0" : 42,
                        "TEXCOORD_1" : 43
                    },
                    "indices" : 44,
                    "material" : 10
                }
            ]
        },
        {
            "name" : "walls.005_1",
            "primitives" : [
                {
                    "attributes" : {
                        "POSITION" : 45,
                        "NORMAL" : 46,
                        "TEXCOORD_0" : 47,
                        "TEXCOORD_1" : 48
                    },
                    "indices" : 49,
                    "material" : 11
                }
            ]
        },
        {
            "name" : "walls.005_10",
            "primitives" : [
                {
                    "attributes" : {
                        "POSITION" : 50,
                        "NORMAL" : 51,
                        "TEXCOORD_0" : 52
                    },
                    "indices" : 53,
                    "material" : 12
                }
            ]
        },
        {
            "name" : "walls.005_11",
            "primitives" : [
                {
                    "attributes" : {
                        "POSITION" : 54,
                        "NORMAL" : 55,
                        "TEXCOORD_0" : 56,
                        "TEXCOORD_1" : 57
                    },
                    "indices" : 58,
                    "material" : 13
                }
            ]
        },
        {
            "name" : "walls.005_12",
            "primitives" : [
                {
                    "attributes" : {
                        "POSITION" : 59,
                        "NORMAL" : 60,
                        "TEXCOORD_0" : 61,
                        "TEXCOORD_1" : 62
                    },
                    "indices" : 63,
                    "material" : 9
                }
            ]
        },
        {
            "name" : "walls.005_2",
            "primitives" : [
                {
                    "attributes" : {
                        "POSITION" : 64,
                        "NORMAL" : 65,
                        "TEXCOORD_0" : 66,
                        "TEXCOORD_1" : 67
                    },
                    "indices" : 68,
                    "material" : 14
                }
            ]
        },
        {
            "name" : "walls.005_3",
            "primitives" : [
                {
                    "attributes" : {
                        "POSITION" : 69,
                        "NORMAL" : 70,
                        "TEXCOORD_0" : 71,
                        "TEXCOORD_1" : 72
                    },
                    "indices" : 73,
                    "material" : 15
                }
            ]
        },
        {
            "name" : "walls.005_4",
            "primitives" : [
                {
                    "attributes" : {
                        "POSITION" : 74,
                        "NORMAL" : 75,
                        "TEXCOORD_0" : 76,
                        "TEXCOORD_1" : 77
                    },
                    "indices" : 78,
                    "material" : 16
                }
            ]
        },
        {
            "name" : "walls.005_5",
            "primitives" : [
                {
                    "attributes" : {
                        "POSITION" : 79,
                        "NORMAL" : 80,
                        "TEXCOORD_0" : 81,
                        "TEXCOORD_1" : 82
                    },
                    "indices" : 83,
                    "material" : 17
                }
            ]
        },
        {
            "name" : "walls.005_6",
            "primitives" : [
                {
                    "attributes" : {
                        "POSITION" : 84,
                        "NORMAL" : 85,
                        "TEXCOORD_0" : 86,
                        "TEXCOORD_1" : 87
                    },
                    "indices" : 88,
                    "material" : 4
                }
            ]
        },
        {
            "name" : "walls.005_7",
            "primitives" : [
                {
                    "attributes" : {
                        "POSITION" : 89,
                        "NORMAL" : 90,
                        "TEXCOORD_0" : 91,
                        "TEXCOORD_1" : 92
                    },
                    "indices" : 93,
                    "material" : 18
                }
            ]
        },
        {
            "name" : "walls.005_8",
            "primitives" : [
                {
                    "attributes" : {
                        "POSITION" : 94,
                        "NORMAL" : 95,
                        "TEXCOORD_0" : 96,
                        "TEXCOORD_1" : 97
                    },
                    "indices" : 98,
                    "material" : 19
                }
            ]
        },
        {
            "name" : "walls.005_9",
            "primitives" : [
                {
                    "attributes" : {
                        "POSITION" : 99,
                        "NORMAL" : 100,
                        "TEXCOORD_0" : 101,
                        "TEXCOORD_1" : 102
                    },
                    "indices" : 103,
                    "material" : 20
                }
            ]
        }
    ],
    "textures" : [
        {
            "source" : 0
        },
        {
            "source" : 0
        },
        {
            "source" : 1
        },
        {
            "source" : 2
        },
        {
            "source" : 3
        },
        {
            "source" : 2
        },
        {
            "source" : 2
        },
        {
            "source" : 4
        },
        {
            "source" : 5
        },
        {
            "source" : 5
        },
        {
            "source" : 5
        },
        {
            "source" : 5
        },
        {
            "source" : 5
        },
        {
            "source" : 5
        },
        {
            "source" : 5
        }
    ],
    "images" : [
        {
            "mimeType" : "image/png",
            "name" : "BakedCycles_emissive.png",
            "uri" : "BakedCycles_emissive_png.png"
        },
        {
            "mimeType" : "image/png",
            "name" : "BakedCycles_emissive",
            "uri" : "BakedCycles_emissive.png"
        },
        {
            "mimeType" : "image/png",
            "name" : "wood_table.005_emissive.png",
            "uri" : "wood_table_005_emissive_png.png"
        },
        {
            "mimeType" : "image/png",
            "name" : "wood_table.005_emissive",
            "uri" : "wood_table_005_emissive.png"
        },
        {
            "mimeType" : "image/png",
            "name" : "plint.005_emissive",
            "uri" : "plint_005_emissive.png"
        },
        {
            "mimeType" : "image/png",
            "name" : "plint.005_emissive.png",
            "uri" : "plint_005_emissive_png.png"
        }
    ],
    "accessors" : [
        {
            "bufferView" : 0,
            "componentType" : 5126,
            "count" : 19426,
            "max" : [
                4.711009979248047,
                0.02515999972820282,
                3.604759931564331
            ],
            "min" : [
                -1.2889900207519531,
                -0.015370000153779984,
                -5.39523983001709
            ],
            "type" : "VEC3"
        },
        {
            "bufferView" : 1,
            "componentType" : 5126,
            "count" : 19426,
            "type" : "VEC3"
        },
        {
            "bufferView" : 2,
            "componentType" : 5126,
            "count" : 19426,
            "type" : "VEC2"
        },
        {
            "bufferView" : 3,
            "componentType" : 5123,
            "count" : 32328,
            "type" : "SCALAR"
        },
        {
            "bufferView" : 4,
            "componentType" : 5126,
            "count" : 8112,
            "max" : [
                4.675749778747559,
                0.015599999576807022,
                3.567470073699951
            ],
            "min" : [
                -1.2508800029754639,
                0.011989999562501907,
                -5.358449935913086
            ],
            "type" : "VEC3"
        },
        {
            "bufferView" : 5,
            "componentType" : 5126,
            "count" : 8112,
            "type" : "VEC3"
        },
        {
            "bufferView" : 6,
            "componentType" : 5126,
            "count" : 8112,
            "type" : "VEC2"
        },
        {
            "bufferView" : 7,
            "componentType" : 5123,
            "count" : 14196,
            "type" : "SCALAR"
        },
        {
            "bufferView" : 8,
            "componentType" : 5126,
            "count" : 328,
            "max" : [
                4.43625020980835,
                0.015949999913573265,
                2.971369981765747
            ],
            "min" : [
                -0.9973199963569641,
                -0.002139999996870756,
                -4.511199951171875
            ],
            "type" : "VEC3"
        },
        {
            "bufferView" : 9,
            "componentType" : 5126,
            "count" : 328,
            "type" : "VEC3"
        },
        {
            "bufferView" : 10,
            "componentType" : 5126,
            "count" : 328,
            "type" : "VEC2"
        },
        {
            "bufferView" : 11,
            "componentType" : 5123,
            "count" : 492,
            "type" : "SCALAR"
        },
        {
            "bufferView" : 12,
            "componentType" : 5126,
            "count" : 120,
            "max" : [
                0.3813000023365021,
                0,
                6.3366899490356445
            ],
            "min" : [
                -6.786250114440918,
                -0.029999999329447746,
                -0.5015100240707397
            ],
            "type" : "VEC3"
        },
        {
            "bufferView" : 13,
            "componentType" : 5126,
            "count" : 120,
            "type" : "VEC3"
        },
        {
            "bufferView" : 14,
            "componentType" : 5126,
            "count" : 120,
            "type" : "VEC2"
        },
        {
            "bufferView" : 15,
            "componentType" : 5123,
            "count" : 180,
            "type" : "SCALAR"
        },
        {
            "bufferView" : 16,
            "componentType" : 5126,
            "count" : 13609,
            "max" : [
                0.8006500005722046,
                0.38749000430107117,
                6.3176398277282715
            ],
            "min" : [
                -9.312700271606445,
                -0.8585299849510193,
                -0.4852199852466583
            ],
            "type" : "VEC3"
        },
        {
            "bufferView" : 17,
            "componentType" : 5126,
            "count" : 13609,
            "type" : "VEC3"
        },
        {
            "bufferView" : 18,
            "componentType" : 5126,
            "count" : 13609,
            "type" : "VEC2"
        },
        {
            "bufferView" : 19,
            "componentType" : 5123,
            "count" : 38982,
            "type" : "SCALAR"
        },
        {
            "bufferView" : 20,
            "componentType" : 5126,
            "count" : 5564,
            "max" : [
                0.9914399981498718,
                0.24021999537944794,
                6.134329795837402
            ],
            "min" : [
                -6.788959980010986,
                -0.44168999791145325,
                -0.33702000975608826
            ],
            "type" : "VEC3"
        },
        {
            "bufferView" : 21,
            "componentType" : 5126,
            "count" : 5564,
            "type" : "VEC3"
        },
        {
            "bufferView" : 22,
            "componentType" : 5126,
            "count" : 5564,
            "type" : "VEC2"
        },
        {
            "bufferView" : 23,
            "componentType" : 5123,
            "count" : 23712,
            "type" : "SCALAR"
        },
        {
            "bufferView" : 24,
            "componentType" : 5126,
            "count" : 3497,
            "max" : [
                -8.630339622497559,
                0.23537999391555786,
                2.6756200790405273
            ],
            "min" : [
                -9.302680015563965,
                -0.7726600170135498,
                -0.026040000841021538
            ],
            "type" : "VEC3"
        },
        {
            "bufferView" : 25,
            "componentType" : 5126,
            "count" : 3497,
            "type" : "VEC3"
        },
        {
            "bufferView" : 26,
            "componentType" : 5126,
            "count" : 3497,
            "type" : "VEC2"
        },
        {
            "bufferView" : 27,
            "componentType" : 5123,
            "count" : 16398,
            "type" : "SCALAR"
        },
        {
            "bufferView" : 28,
            "componentType" : 5126,
            "count" : 15,
            "max" : [
                -9.18239974975586,
                0.3736799955368042,
                2.23363995552063
            ],
            "min" : [
                -9.184320449829102,
                0.36574000120162964,
                2.2295100688934326
            ],
            "type" : "VEC3"
        },
        {
            "bufferView" : 29,
            "componentType" : 5126,
            "count" : 15,
            "type" : "VEC3"
        },
        {
            "bufferView" : 30,
            "componentType" : 5126,
            "count" : 15,
            "type" : "VEC2"
        },
        {
            "bufferView" : 31,
            "componentType" : 5123,
            "count" : 57,
            "type" : "SCALAR"
        },
        {
            "bufferView" : 32,
            "componentType" : 5126,
            "count" : 15,
            "max" : [
                -9.18239974975586,
                0.3736799955368042,
                2.2377700805664062
            ],
            "min" : [
                -9.184320449829102,
                0.36574000120162964,
                2.23363995552063
            ],
            "type" : "VEC3"
        },
        {
            "bufferView" : 33,
            "componentType" : 5126,
            "count" : 15,
            "type" : "VEC3"
        },
        {
            "bufferView" : 34,
            "componentType" : 5126,
            "count" : 15,
            "type" : "VEC2"
        },
        {
            "bufferView" : 35,
            "componentType" : 5123,
            "count" : 57,
            "type" : "SCALAR"
        },
        {
            "bufferView" : 36,
            "componentType" : 5126,
            "count" : 423,
            "max" : [
                -8.630339622497559,
                -0.24666999280452728,
                0.4697200059890747
            ],
            "min" : [
                -9.302680015563965,
                -0.2867699861526489,
                -0.024410000070929527
            ],
            "type" : "VEC3"
        },
        {
            "bufferView" : 37,
            "componentType" : 5126,
            "count" : 423,
            "type" : "VEC3"
        },
        {
            "bufferView" : 38,
            "componentType" : 5126,
            "count" : 423,
            "type" : "VEC2"
        },
        {
            "bufferView" : 39,
            "componentType" : 5123,
            "count" : 2016,
            "type" : "SCALAR"
        },
        {
            "bufferView" : 40,
            "componentType" : 5126,
            "count" : 8136,
            "max" : [
                0.6613100171089172,
                2.1112000942230225,
                0.5257300138473511
            ],
            "min" : [
                -2.405630111694336,
                0,
                -0.7277799844741821
            ],
            "type" : "VEC3"
        },
        {
            "bufferView" : 41,
            "componentType" : 5126,
            "count" : 8136,
            "type" : "VEC3"
        },
        {
            "bufferView" : 42,
            "componentType" : 5126,
            "count" : 8136,
            "type" : "VEC2"
        },
        {
            "bufferView" : 43,
            "componentType" : 5126,
            "count" : 8136,
            "type" : "VEC2"
        },
        {
            "bufferView" : 44,
            "componentType" : 5123,
            "count" : 12204,
            "type" : "SCALAR"
        },
        {
            "bufferView" : 45,
            "componentType" : 5126,
            "count" : 3968,
            "max" : [
                3.6952900886535645,
                2.14342999458313,
                -2.6845600605010986
            ],
            "min" : [
                -1.9753700494766235,
                0.7554399967193604,
                -8.577779769897461
            ],
            "type" : "VEC3"
        },
        {
            "bufferView" : 46,
            "componentType" : 5126,
            "count" : 3968,
            "type" : "VEC3"
        },
        {
            "bufferView" : 47,
            "componentType" : 5126,
            "count" : 3968,
            "type" : "VEC2"
        },
        {
            "bufferView" : 48,
            "componentType" : 5126,
            "count" : 3968,
            "type" : "VEC2"
        },
        {
            "bufferView" : 49,
            "componentType" : 5123,
            "count" : 8256,
            "type" : "SCALAR"
        },
        {
            "bufferView" : 50,
            "componentType" : 5126,
            "count" : 19,
            "max" : [
                3.595289945602417,
                0,
                0.7722200155258179
            ],
            "min" : [
                -2.404710054397583,
                0,
                -8.47778034210205
            ],
            "type" : "VEC3"
        },
        {
            "bufferView" : 51,
            "componentType" : 5126,
            "count" : 19,
            "type" : "VEC3"
        },
        {
            "bufferView" : 52,
            "componentType" : 5126,
            "count" : 19,
            "type" : "VEC2"
        },
        {
            "bufferView" : 53,
            "componentType" : 5123,
            "count" : 60,
            "type" : "SCALAR"
        },
        {
            "bufferView" : 54,
            "componentType" : 5126,
            "count" : 436,
            "max" : [
                3.095289945602417,
                2.1050000190734863,
                0.812529981136322
            ],
            "min" : [
                2.165290117263794,
                -0.009999999776482582,
                0.6584500074386597
            ],
            "type" : "VEC3"
        },
        {
            "bufferView" : 55,
            "componentType" : 5126,
            "count" : 436,
            "type" : "VEC3"
        },
        {
            "bufferView" : 56,
            "componentType" : 5126,
            "count" : 436,
            "type" : "VEC2"
        },
        {
            "bufferView" : 57,
            "componentType" : 5126,
            "count" : 436,
            "type" : "VEC2"
        },
        {
            "bufferView" : 58,
            "componentType" : 5123,
            "count" : 624,
            "type" : "SCALAR"
        },
        {
            "bufferView" : 59,
            "componentType" : 5126,
            "count" : 448,
            "max" : [
                3.595289945602417,
                0.05999999865889549,
                0.6584500074386597
            ],
            "min" : [
                -2.404710054397583,
                -0.009999999776482582,
                -8.47778034210205
            ],
            "type" : "VEC3"
        },
        {
            "bufferView" : 60,
            "componentType" : 5126,
            "count" : 448,
            "type" : "VEC3"
        },
        {
            "bufferView" : 61,
            "componentType" : 5126,
            "count" : 448,
            "type" : "VEC2"
        },
        {
            "bufferView" : 62,
            "componentType" : 5126,
            "count" : 448,
            "type" : "VEC2"
        },
        {
            "bufferView" : 63,
            "componentType" : 5123,
            "count" : 960,
            "type" : "SCALAR"
        },
        {
            "bufferView" : 64,
            "componentType" : 5126,
            "count" : 36,
            "max" : [
                3.6568000316619873,
                2.724600076675415,
                -0.8762199878692627
            ],
            "min" : [
                -1.885699987411499,
                0.021810000762343407,
                -8.539290428161621
            ],
            "type" : "VEC3"
        },
        {
            "bufferView" : 65,
            "componentType" : 5126,
            "count" : 36,
            "type" : "VEC3"
        },
        {
            "bufferView" : 66,
            "componentType" : 5126,
            "count" : 36,
            "type" : "VEC2"
        },
        {
            "bufferView" : 67,
            "componentType" : 5126,
            "count" : 36,
            "type" : "VEC2"
        },
        {
            "bufferView" : 68,
            "componentType" : 5123,
            "count" : 54,
            "type" : "SCALAR"
        },
        {
            "bufferView" : 69,
            "componentType" : 5126,
            "count" : 560,
            "max" : [
                3.6952900886535645,
                2.14342999458313,
                -2.6845600605010986
            ],
            "min" : [
                -1.9753700494766235,
                0.7869200110435486,
                -8.577779769897461
            ],
            "type" : "VEC3"
        },
        {
            "bufferView" : 70,
            "componentType" : 5126,
            "count" : 560,
            "type" : "VEC3"
        },
        {
            "bufferView" : 71,
            "componentType" : 5126,
            "count" : 560,
            "type" : "VEC2"
        },
        {
            "bufferView" : 72,
            "componentType" : 5126,
            "count" : 560,
            "type" : "VEC2"
        },
        {
            "bufferView" : 73,
            "componentType" : 5123,
            "count" : 1272,
            "type" : "SCALAR"
        },
        {
            "bufferView" : 74,
            "componentType" : 5126,
            "count" : 1088,
            "max" : [
                0.6952900290489197,
                2.7825698852539062,
                -0.82778000831604
            ],
            "min" : [
                0.5952900052070618,
                -0.009999999776482582,
                -4.377779960632324
            ],
            "type" : "VEC3"
        },
        {
            "bufferView" : 75,
            "componentType" : 5126,
            "count" : 1088,
            "type" : "VEC3"
        },
        {
            "bufferView" : 76,
            "componentType" : 5126,
            "count" : 1088,
            "type" : "VEC2"
        },
        {
            "bufferView" : 77,
            "componentType" : 5126,
            "count" : 1088,
            "type" : "VEC2"
        },
        {
            "bufferView" : 78,
            "componentType" : 5123,
            "count" : 1572,
            "type" : "SCALAR"
        },
        {
            "bufferView" : 79,
            "componentType" : 5126,
            "count" : 1744,
            "max" : [
                1.8246400356292725,
                2.115000009536743,
                0.28749001026153564
            ],
            "min" : [
                -0.822950005531311,
                -0.009999999776482582,
                -6.010509967803955
            ],
            "type" : "VEC3"
        },
        {
            "bufferView" : 80,
            "componentType" : 5126,
            "count" : 1744,
            "type" : "VEC3"
        },
        {
            "bufferView" : 81,
            "componentType" : 5126,
            "count" : 1744,
            "type" : "VEC2"
        },
        {
            "bufferView" : 82,
            "componentType" : 5126,
            "count" : 1744,
            "type" : "VEC2"
        },
        {
            "bufferView" : 83,
            "componentType" : 5123,
            "count" : 2496,
            "type" : "SCALAR"
        },
        {
            "bufferView" : 84,
            "componentType" : 5126,
            "count" : 4464,
            "max" : [
                2.4591000080108643,
                1.005120038986206,
                0.8509299755096436
            ],
            "min" : [
                -0.7813400030136108,
                0.885890007019043,
                -6.048920154571533
            ],
            "type" : "VEC3"
        },
        {
            "bufferView" : 85,
            "componentType" : 5126,
            "count" : 4464,
            "type" : "VEC3"
        },
        {
            "bufferView" : 86,
            "componentType" : 5126,
            "count" : 4464,
            "type" : "VEC2"
        },
        {
            "bufferView" : 87,
            "componentType" : 5126,
            "count" : 4464,
            "type" : "VEC2"
        },
        {
            "bufferView" : 88,
            "componentType" : 5123,
            "count" : 7074,
            "type" : "SCALAR"
        },
        {
            "bufferView" : 89,
            "componentType" : 5126,
            "count" : 460,
            "max" : [
                3.6952900886535645,
                3.9618899822235107,
                0.7722200155258179
            ],
            "min" : [
                -2.528700113296509,
                -0.49386000633239746,
                -8.577779769897461
            ],
            "type" : "VEC3"
        },
        {
            "bufferView" : 90,
            "componentType" : 5126,
            "count" : 460,
            "type" : "VEC3"
        },
        {
            "bufferView" : 91,
            "componentType" : 5126,
            "count" : 460,
            "type" : "VEC2"
        },
        {
            "bufferView" : 92,
            "componentType" : 5126,
            "count" : 460,
            "type" : "VEC2"
        },
        {
            "bufferView" : 93,
            "componentType" : 5123,
            "count" : 1044,
            "type" : "SCALAR"
        },
        {
            "bufferView" : 94,
            "componentType" : 5126,
            "count" : 1448,
            "max" : [
                3.61149001121521,
                3.9618899822235107,
                1.5906100273132324
            ],
            "min" : [
                -2.528700113296509,
                -0.49386000633239746,
                -8.508480072021484
            ],
            "type" : "VEC3"
        },
        {
            "bufferView" : 95,
            "componentType" : 5126,
            "count" : 1448,
            "type" : "VEC3"
        },
        {
            "bufferView" : 96,
            "componentType" : 5126,
            "count" : 1448,
            "type" : "VEC2"
        },
        {
            "bufferView" : 97,
            "componentType" : 5126,
            "count" : 1448,
            "type" : "VEC2"
        },
        {
            "bufferView" : 98,
            "componentType" : 5123,
            "count" : 4230,
            "type" : "SCALAR"
        },
        {
            "bufferView" : 99,
            "componentType" : 5126,
            "count" : 864,
            "max" : [
                3.595289945602417,
                3,
                0.5222200155258179
            ],
            "min" : [
                -2.404710054397583,
                2.9607999324798584,
                -8.47778034210205
            ],
            "type" : "VEC3"
        },
        {
            "bufferView" : 100,
            "componentType" : 5126,
            "count" : 864,
            "type" : "VEC3"
        },
        {
            "bufferView" : 101,
            "componentType" : 5126,
            "count" : 864,
            "type" : "VEC2"
        },
        {
            "bufferView" : 102,
            "componentType" : 5126,
            "count" : 864,
            "type" : "VEC2"
        },
        {
            "bufferView" : 103,
            "componentType" : 5123,
            "count" : 1296,
            "type" : "SCALAR"
        }
    ],
    "bufferViews" : [
        {
            "buffer" : 0,
            "byteLength" : 233112,
            "byteOffset" : 0
        },
        {
            "buffer" : 0,
            "byteLength" : 233112,
            "byteOffset" : 233112
        },
        {
            "buffer" : 0,
            "byteLength" : 155408,
            "byteOffset" : 466224
        },
        {
            "buffer" : 0,
            "byteLength" : 64656,
            "byteOffset" : 621632
        },
        {
            "buffer" : 0,
            "byteLength" : 97344,
            "byteOffset" : 686288
        },
        {
            "buffer" : 0,
            "byteLength" : 97344,
            "byteOffset" : 783632
        },
        {
            "buffer" : 0,
            "byteLength" : 64896,
            "byteOffset" : 880976
        },
        {
            "buffer" : 0,
            "byteLength" : 28392,
            "byteOffset" : 945872
        },
        {
            "buffer" : 0,
            "byteLength" : 3936,
            "byteOffset" : 974264
        },
        {
            "buffer" : 0,
            "byteLength" : 3936,
            "byteOffset" : 978200
        },
        {
            "buffer" : 0,
            "byteLength" : 2624,
            "byteOffset" : 982136
        },
        {
            "buffer" : 0,
            "byteLength" : 984,
            "byteOffset" : 984760
        },
        {
            "buffer" : 0,
            "byteLength" : 1440,
            "byteOffset" : 985744
        },
        {
            "buffer" : 0,
            "byteLength" : 1440,
            "byteOffset" : 987184
        },
        {
            "buffer" : 0,
            "byteLength" : 960,
            "byteOffset" : 988624
        },
        {
            "buffer" : 0,
            "byteLength" : 360,
            "byteOffset" : 989584
        },
        {
            "buffer" : 0,
            "byteLength" : 163308,
            "byteOffset" : 989944
        },
        {
            "buffer" : 0,
            "byteLength" : 163308,
            "byteOffset" : 1153252
        },
        {
            "buffer" : 0,
            "byteLength" : 108872,
            "byteOffset" : 1316560
        },
        {
            "buffer" : 0,
            "byteLength" : 77964,
            "byteOffset" : 1425432
        },
        {
            "buffer" : 0,
            "byteLength" : 66768,
            "byteOffset" : 1503396
        },
        {
            "buffer" : 0,
            "byteLength" : 66768,
            "byteOffset" : 1570164
        },
        {
            "buffer" : 0,
            "byteLength" : 44512,
            "byteOffset" : 1636932
        },
        {
            "buffer" : 0,
            "byteLength" : 47424,
            "byteOffset" : 1681444
        },
        {
            "buffer" : 0,
            "byteLength" : 41964,
            "byteOffset" : 1728868
        },
        {
            "buffer" : 0,
            "byteLength" : 41964,
            "byteOffset" : 1770832
        },
        {
            "buffer" : 0,
            "byteLength" : 27976,
            "byteOffset" : 1812796
        },
        {
            "buffer" : 0,
            "byteLength" : 32796,
            "byteOffset" : 1840772
        },
        {
            "buffer" : 0,
            "byteLength" : 180,
            "byteOffset" : 1873568
        },
        {
            "buffer" : 0,
            "byteLength" : 180,
            "byteOffset" : 1873748
        },
        {
            "buffer" : 0,
            "byteLength" : 120,
            "byteOffset" : 1873928
        },
        {
            "buffer" : 0,
            "byteLength" : 114,
            "byteOffset" : 1874048
        },
        {
            "buffer" : 0,
            "byteLength" : 180,
            "byteOffset" : 1874164
        },
        {
            "buffer" : 0,
            "byteLength" : 180,
            "byteOffset" : 1874344
        },
        {
            "buffer" : 0,
            "byteLength" : 120,
            "byteOffset" : 1874524
        },
        {
            "buffer" : 0,
            "byteLength" : 114,
            "byteOffset" : 1874644
        },
        {
            "buffer" : 0,
            "byteLength" : 5076,
            "byteOffset" : 1874760
        },
        {
            "buffer" : 0,
            "byteLength" : 5076,
            "byteOffset" : 1879836
        },
        {
            "buffer" : 0,
            "byteLength" : 3384,
            "byteOffset" : 1884912
        },
        {
            "buffer" : 0,
            "byteLength" : 4032,
            "byteOffset" : 1888296
        },
        {
            "buffer" : 0,
            "byteLength" : 97632,
            "byteOffset" : 1892328
        },
        {
            "buffer" : 0,
            "byteLength" : 97632,
            "byteOffset" : 1989960
        },
        {
            "buffer" : 0,
            "byteLength" : 65088,
            "byteOffset" : 2087592
        },
        {
            "buffer" : 0,
            "byteLength" : 65088,
            "byteOffset" : 2152680
        },
        {
            "buffer" : 0,
            "byteLength" : 24408,
            "byteOffset" : 2217768
        },
        {
            "buffer" : 0,
            "byteLength" : 47616,
            "byteOffset" : 2242176
        },
        {
            "buffer" : 0,
            "byteLength" : 47616,
            "byteOffset" : 2289792
        },
        {
            "buffer" : 0,
            "byteLength" : 31744,
            "byteOffset" : 2337408
        },
        {
            "buffer" : 0,
            "byteLength" : 31744,
            "byteOffset" : 2369152
        },
        {
            "buffer" : 0,
            "byteLength" : 16512,
            "byteOffset" : 2400896
        },
        {
            "buffer" : 0,
            "byteLength" : 228,
            "byteOffset" : 2417408
        },
        {
            "buffer" : 0,
            "byteLength" : 228,
            "byteOffset" : 2417636
        },
        {
            "buffer" : 0,
            "byteLength" : 152,
            "byteOffset" : 2417864
        },
        {
            "buffer" : 0,
            "byteLength" : 120,
            "byteOffset" : 2418016
        },
        {
            "buffer" : 0,
            "byteLength" : 5232,
            "byteOffset" : 2418136
        },
        {
            "buffer" : 0,
            "byteLength" : 5232,
            "byteOffset" : 2423368
        },
        {
            "buffer" : 0,
            "byteLength" : 3488,
            "byteOffset" : 2428600
        },
        {
            "buffer" : 0,
            "byteLength" : 3488,
            "byteOffset" : 2432088
        },
        {
            "buffer" : 0,
            "byteLength" : 1248,
            "byteOffset" : 2435576
        },
        {
            "buffer" : 0,
            "byteLength" : 5376,
            "byteOffset" : 2436824
        },
        {
            "buffer" : 0,
            "byteLength" : 5376,
            "byteOffset" : 2442200
        },
        {
            "buffer" : 0,
            "byteLength" : 3584,
            "byteOffset" : 2447576
        },
        {
            "buffer" : 0,
            "byteLength" : 3584,
            "byteOffset" : 2451160
        },
        {
            "buffer" : 0,
            "byteLength" : 1920,
            "byteOffset" : 2454744
        },
        {
            "buffer" : 0,
            "byteLength" : 432,
            "byteOffset" : 2456664
        },
        {
            "buffer" : 0,
            "byteLength" : 432,
            "byteOffset" : 2457096
        },
        {
            "buffer" : 0,
            "byteLength" : 288,
            "byteOffset" : 2457528
        },
        {
            "buffer" : 0,
            "byteLength" : 288,
            "byteOffset" : 2457816
        },
        {
            "buffer" : 0,
            "byteLength" : 108,
            "byteOffset" : 2458104
        },
        {
            "buffer" : 0,
            "byteLength" : 6720,
            "byteOffset" : 2458212
        },
        {
            "buffer" : 0,
            "byteLength" : 6720,
            "byteOffset" : 2464932
        },
        {
            "buffer" : 0,
            "byteLength" : 4480,
            "byteOffset" : 2471652
        },
        {
            "buffer" : 0,
            "byteLength" : 4480,
            "byteOffset" : 2476132
        },
        {
            "buffer" : 0,
            "byteLength" : 2544,
            "byteOffset" : 2480612
        },
        {
            "buffer" : 0,
            "byteLength" : 13056,
            "byteOffset" : 2483156
        },
        {
            "buffer" : 0,
            "byteLength" : 13056,
            "byteOffset" : 2496212
        },
        {
            "buffer" : 0,
            "byteLength" : 8704,
            "byteOffset" : 2509268
        },
        {
            "buffer" : 0,
            "byteLength" : 8704,
            "byteOffset" : 2517972
        },
        {
            "buffer" : 0,
            "byteLength" : 3144,
            "byteOffset" : 2526676
        },
        {
            "buffer" : 0,
            "byteLength" : 20928,
            "byteOffset" : 2529820
        },
        {
            "buffer" : 0,
            "byteLength" : 20928,
            "byteOffset" : 2550748
        },
        {
            "buffer" : 0,
            "byteLength" : 13952,
            "byteOffset" : 2571676
        },
        {
            "buffer" : 0,
            "byteLength" : 13952,
            "byteOffset" : 2585628
        },
        {
            "buffer" : 0,
            "byteLength" : 4992,
            "byteOffset" : 2599580
        },
        {
            "buffer" : 0,
            "byteLength" : 53568,
            "byteOffset" : 2604572
        },
        {
            "buffer" : 0,
            "byteLength" : 53568,
            "byteOffset" : 2658140
        },
        {
            "buffer" : 0,
            "byteLength" : 35712,
            "byteOffset" : 2711708
        },
        {
            "buffer" : 0,
            "byteLength" : 35712,
            "byteOffset" : 2747420
        },
        {
            "buffer" : 0,
            "byteLength" : 14148,
            "byteOffset" : 2783132
        },
        {
            "buffer" : 0,
            "byteLength" : 5520,
            "byteOffset" : 2797280
        },
        {
            "buffer" : 0,
            "byteLength" : 5520,
            "byteOffset" : 2802800
        },
        {
            "buffer" : 0,
            "byteLength" : 3680,
            "byteOffset" : 2808320
        },
        {
            "buffer" : 0,
            "byteLength" : 3680,
            "byteOffset" : 2812000
        },
        {
            "buffer" : 0,
            "byteLength" : 2088,
            "byteOffset" : 2815680
        },
        {
            "buffer" : 0,
            "byteLength" : 17376,
            "byteOffset" : 2817768
        },
        {
            "buffer" : 0,
            "byteLength" : 17376,
            "byteOffset" : 2835144
        },
        {
            "buffer" : 0,
            "byteLength" : 11584,
            "byteOffset" : 2852520
        },
        {
            "buffer" : 0,
            "byteLength" : 11584,
            "byteOffset" : 2864104
        },
        {
            "buffer" : 0,
            "byteLength" : 8460,
            "byteOffset" : 2875688
        },
        {
            "buffer" : 0,
            "byteLength" : 10368,
            "byteOffset" : 2884148
        },
        {
            "buffer" : 0,
            "byteLength" : 10368,
            "byteOffset" : 2894516
        },
        {
            "buffer" : 0,
            "byteLength" : 6912,
            "byteOffset" : 2904884
        },
        {
            "buffer" : 0,
            "byteLength" : 6912,
            "byteOffset" : 2911796
        },
        {
            "buffer" : 0,
            "byteLength" : 2592,
            "byteOffset" : 2918708
        }
    ],
    "buffers" : [
        {
            "byteLength" : 2921300,
            "uri" : "House_demo_separate.bin"
        }
    ]
}
