{
    "asset" : {
        "generator" : "Khronos glTF Blender I/O v1.2.75",
        "version" : "2.0"
    },
    "scene" : 0,
    "scenes" : [
        {
            "name" : "Scene",
            "nodes" : [
                0,
                1,
                2,
                3,
                4
            ]
        }
    ],
    "nodes" : [
        {
            "mesh" : 0,
            "name" : "Cube",
            "rotation" : [
                0.006180085241794586,
                -0.0003030900261364877,
                -0.00047553126933053136,
                0.9999807476997375
            ],
            "scale" : [
                1,
                1,
                0.800000011920929
            ],
            "translation" : [
                -0.27509647607803345,
                -6.907139778137207,
                -1.4421379566192627
            ]
        },
        {
            "mesh" : 1,
            "name" : "Text.004",
            "rotation" : [
                0.49712246656417847,
                0.5139188170433044,
                -0.5024895668029785,
                0.4860668182373047
            ],
            "translation" : [
                -13.848199844360352,
                45.75708770751953,
                1.1244800090789795
            ]
        },
        {
            "mesh" : 2,
            "name" : "Text.003",
            "rotation" : [
                0.49712246656417847,
                0.5139188170433044,
                -0.5024895668029785,
                0.4860668182373047
            ],
            "translation" : [
                -13.848199844360352,
                31.595558166503906,
                1.1244800090789795
            ]
        },
        {
            "mesh" : 3,
            "name" : "Text.002",
            "rotation" : [
                0.49712246656417847,
                0.5139188170433044,
                -0.5024895668029785,
                0.4860668182373047
            ],
            "translation" : [
                -13.848199844360352,
                19.909053802490234,
                1.1244800090789795
            ]
        },
        {
            "mesh" : 4,
            "name" : "Text.001",
            "rotation" : [
                0.49712246656417847,
                0.5139188170433044,
                -0.5024895668029785,
                0.4860668182373047
            ],
            "translation" : [
                -13.865575790405273,
                7.125249862670898,
                1.1244800090789795
            ]
        }
    ],
    "materials" : [
        {
            "doubleSided" : true,
            "emissiveFactor" : [
                0,
                0,
                0
            ],
            "name" : "MassHallMain",
            "pbrMetallicRoughness" : {
                "baseColorTexture" : {
                    "index" : 0,
                    "texCoord" : 0
                },
                "metallicFactor" : 0,
                "roughnessFactor" : 0
            }
        },
        {
            "doubleSided" : true,
            "emissiveFactor" : [
                0,
                0,
                0
            ],
            "name" : "Paint",
            "pbrMetallicRoughness" : {
                "baseColorFactor" : [
                    0.800000011920929,
                    0.800000011920929,
                    0.800000011920929,
                    1
                ],
                "metallicFactor" : 0,
                "roughnessFactor" : 1
            }
        },
        {
            "alphaMode" : "BLEND",
            "doubleSided" : true,
            "emissiveFactor" : [
                0,
                0,
                0
            ],
            "name" : "Glass",
            "pbrMetallicRoughness" : {
                "baseColorFactor" : [
                    0.800000011920929,
                    0.800000011920929,
                    0.800000011920929,
                    1
                ],
                "metallicFactor" : 0,
                "roughnessFactor" : 0.5
            }
        },
        {
            "doubleSided" : true,
            "emissiveFactor" : [
                0,
                0,
                0
            ],
            "name" : "FloorText",
            "pbrMetallicRoughness" : {
                "baseColorFactor" : [
                    0.3647027909755707,
                    0.7398605942726135,
                    0.09094397723674774,
                    1
                ],
                "metallicFactor" : 0,
                "roughnessFactor" : 0.5
            }
        }
    ],
    "meshes" : [
        {
            "name" : "Cube",
            "primitives" : [
                {
                    "attributes" : {
                        "POSITION" : 0,
                        "NORMAL" : 1,
                        "TEXCOORD_0" : 2
                    },
                    "indices" : 3,
                    "material" : 0
                },
                {
                    "attributes" : {
                        "POSITION" : 4,
                        "NORMAL" : 5,
                        "TEXCOORD_0" : 6
                    },
                    "indices" : 7,
                    "material" : 1
                },
                {
                    "attributes" : {
                        "POSITION" : 8,
                        "NORMAL" : 9,
                        "TEXCOORD_0" : 10
                    },
                    "indices" : 11,
                    "material" : 2
                }
            ]
        },
        {
            "name" : "Text",
            "primitives" : [
                {
                    "attributes" : {
                        "POSITION" : 12,
                        "NORMAL" : 13,
                        "TEXCOORD_0" : 14
                    },
                    "indices" : 15,
                    "material" : 3
                }
            ]
        },
        {
            "name" : "Text.001",
            "primitives" : [
                {
                    "attributes" : {
                        "POSITION" : 16,
                        "NORMAL" : 17,
                        "TEXCOORD_0" : 18
                    },
                    "indices" : 19,
                    "material" : 3
                }
            ]
        },
        {
            "name" : "Text.002",
            "primitives" : [
                {
                    "attributes" : {
                        "POSITION" : 20,
                        "NORMAL" : 21,
                        "TEXCOORD_0" : 22
                    },
                    "indices" : 23,
                    "material" : 3
                }
            ]
        },
        {
            "name" : "Text.003",
            "primitives" : [
                {
                    "attributes" : {
                        "POSITION" : 24,
                        "NORMAL" : 25,
                        "TEXCOORD_0" : 26
                    },
                    "indices" : 27,
                    "material" : 3
                }
            ]
        }
    ],
    "textures" : [
        {
            "source" : 0
        }
    ],
    "images" : [
        {
            "mimeType" : "image/png",
            "name" : "MassachussetsHallAlbedo",
            "uri" : "MassachussetsHallAlbedo.png"
        }
    ],
    "accessors" : [
        {
            "bufferView" : 0,
            "componentType" : 5126,
            "count" : 6568,
            "max" : [
                43.438262939453125,
                60.0948486328125,
                19.82187271118164
            ],
            "min" : [
                -25.57406234741211,
                9.325187683105469,
                -19.82185935974121
            ],
            "type" : "VEC3"
        },
        {
            "bufferView" : 1,
            "componentType" : 5126,
            "count" : 6568,
            "type" : "VEC3"
        },
        {
            "bufferView" : 2,
            "componentType" : 5126,
            "count" : 6568,
            "type" : "VEC2"
        },
        {
            "bufferView" : 3,
            "componentType" : 5123,
            "count" : 10080,
            "type" : "SCALAR"
        },
        {
            "bufferView" : 4,
            "componentType" : 5126,
            "count" : 358580,
            "max" : [
                42.875,
                56.64109802246094,
                18.93082618713379
            ],
            "min" : [
                -25.007667541503906,
                11.435867309570312,
                -18.93025016784668
            ],
            "type" : "VEC3"
        },
        {
            "bufferView" : 5,
            "componentType" : 5126,
            "count" : 358580,
            "type" : "VEC3"
        },
        {
            "bufferView" : 6,
            "componentType" : 5126,
            "count" : 358580,
            "type" : "VEC2"
        },
        {
            "bufferView" : 7,
            "componentType" : 5125,
            "count" : 614400,
            "type" : "SCALAR"
        },
        {
            "bufferView" : 8,
            "componentType" : 5126,
            "count" : 2048,
            "max" : [
                42.819156646728516,
                56.621421813964844,
                18.861021041870117
            ],
            "min" : [
                -24.951824188232422,
                11.455554962158203,
                -18.860445022583008
            ],
            "type" : "VEC3"
        },
        {
            "bufferView" : 9,
            "componentType" : 5126,
            "count" : 2048,
            "type" : "VEC3"
        },
        {
            "bufferView" : 10,
            "componentType" : 5126,
            "count" : 2048,
            "type" : "VEC2"
        },
        {
            "bufferView" : 11,
            "componentType" : 5123,
            "count" : 3072,
            "type" : "SCALAR"
        },
        {
            "bufferView" : 12,
            "componentType" : 5126,
            "count" : 33,
            "max" : [
                4.700000286102295,
                0,
                0
            ],
            "min" : [
                0.3800000250339508,
                0,
                -3.455000162124634
            ],
            "type" : "VEC3"
        },
        {
            "bufferView" : 13,
            "componentType" : 5126,
            "count" : 33,
            "type" : "VEC3"
        },
        {
            "bufferView" : 14,
            "componentType" : 5126,
            "count" : 33,
            "type" : "VEC2"
        },
        {
            "bufferView" : 15,
            "componentType" : 5123,
            "count" : 69,
            "type" : "SCALAR"
        },
        {
            "bufferView" : 16,
            "componentType" : 5126,
            "count" : 199,
            "max" : [
                4.465000152587891,
                0,
                0.04500000178813934
            ],
            "min" : [
                0.3800000250339508,
                0,
                -3.455000162124634
            ],
            "type" : "VEC3"
        },
        {
            "bufferView" : 17,
            "componentType" : 5126,
            "count" : 199,
            "type" : "VEC3"
        },
        {
            "bufferView" : 18,
            "componentType" : 5126,
            "count" : 199,
            "type" : "VEC2"
        },
        {
            "bufferView" : 19,
            "componentType" : 5123,
            "count" : 459,
            "type" : "SCALAR"
        },
        {
            "bufferView" : 20,
            "componentType" : 5126,
            "count" : 127,
            "max" : [
                4.675000190734863,
                0,
                0
            ],
            "min" : [
                0.3800000250339508,
                0,
                -3.455000162124634
            ],
            "type" : "VEC3"
        },
        {
            "bufferView" : 21,
            "componentType" : 5126,
            "count" : 127,
            "type" : "VEC3"
        },
        {
            "bufferView" : 22,
            "componentType" : 5126,
            "count" : 127,
            "type" : "VEC2"
        },
        {
            "bufferView" : 23,
            "componentType" : 5123,
            "count" : 285,
            "type" : "SCALAR"
        },
        {
            "bufferView" : 24,
            "componentType" : 5126,
            "count" : 14,
            "max" : [
                3.8450002670288086,
                0,
                0
            ],
            "min" : [
                0.3800000250339508,
                0,
                -3.4100003242492676
            ],
            "type" : "VEC3"
        },
        {
            "bufferView" : 25,
            "componentType" : 5126,
            "count" : 14,
            "type" : "VEC3"
        },
        {
            "bufferView" : 26,
            "componentType" : 5126,
            "count" : 14,
            "type" : "VEC2"
        },
        {
            "bufferView" : 27,
            "componentType" : 5123,
            "count" : 30,
            "type" : "SCALAR"
        }
    ],
    "bufferViews" : [
        {
            "buffer" : 0,
            "byteLength" : 78816,
            "byteOffset" : 0
        },
        {
            "buffer" : 0,
            "byteLength" : 78816,
            "byteOffset" : 78816
        },
        {
            "buffer" : 0,
            "byteLength" : 52544,
            "byteOffset" : 157632
        },
        {
            "buffer" : 0,
            "byteLength" : 20160,
            "byteOffset" : 210176
        },
        {
            "buffer" : 0,
            "byteLength" : 4302960,
            "byteOffset" : 230336
        },
        {
            "buffer" : 0,
            "byteLength" : 4302960,
            "byteOffset" : 4533296
        },
        {
            "buffer" : 0,
            "byteLength" : 2868640,
            "byteOffset" : 8836256
        },
        {
            "buffer" : 0,
            "byteLength" : 2457600,
            "byteOffset" : 11704896
        },
        {
            "buffer" : 0,
            "byteLength" : 24576,
            "byteOffset" : 14162496
        },
        {
            "buffer" : 0,
            "byteLength" : 24576,
            "byteOffset" : 14187072
        },
        {
            "buffer" : 0,
            "byteLength" : 16384,
            "byteOffset" : 14211648
        },
        {
            "buffer" : 0,
            "byteLength" : 6144,
            "byteOffset" : 14228032
        },
        {
            "buffer" : 0,
            "byteLength" : 396,
            "byteOffset" : 14234176
        },
        {
            "buffer" : 0,
            "byteLength" : 396,
            "byteOffset" : 14234572
        },
        {
            "buffer" : 0,
            "byteLength" : 264,
            "byteOffset" : 14234968
        },
        {
            "buffer" : 0,
            "byteLength" : 138,
            "byteOffset" : 14235232
        },
        {
            "buffer" : 0,
            "byteLength" : 2388,
            "byteOffset" : 14235372
        },
        {
            "buffer" : 0,
            "byteLength" : 2388,
            "byteOffset" : 14237760
        },
        {
            "buffer" : 0,
            "byteLength" : 1592,
            "byteOffset" : 14240148
        },
        {
            "buffer" : 0,
            "byteLength" : 918,
            "byteOffset" : 14241740
        },
        {
            "buffer" : 0,
            "byteLength" : 1524,
            "byteOffset" : 14242660
        },
        {
            "buffer" : 0,
            "byteLength" : 1524,
            "byteOffset" : 14244184
        },
        {
            "buffer" : 0,
            "byteLength" : 1016,
            "byteOffset" : 14245708
        },
        {
            "buffer" : 0,
            "byteLength" : 570,
            "byteOffset" : 14246724
        },
        {
            "buffer" : 0,
            "byteLength" : 168,
            "byteOffset" : 14247296
        },
        {
            "buffer" : 0,
            "byteLength" : 168,
            "byteOffset" : 14247464
        },
        {
            "buffer" : 0,
            "byteLength" : 112,
            "byteOffset" : 14247632
        },
        {
            "buffer" : 0,
            "byteLength" : 60,
            "byteOffset" : 14247744
        }
    ],
    "buffers" : [
        {
            "byteLength" : 14247804,
            "uri" : "brick-building.bin"
        }
    ]
}
